{
  // See https://go.microsoft.com/fwlink/?LinkId=733558
  // for the documentation about the tasks.json format
  "version": "2.0.0",
  "tasks": [
    {
      "label": "Unpack SOS files",
      "type": "shell", // uses default, which is fish in my case
      "command": "for X in *sos*.tar.gz; tar xzf $X && rm $X; end"
    },
    {
      "label": "Init local git from zendesk downloads",
      "type": "shell",
      "command": "git init; git config core.autocrlf false; git config core.excludesfile .vscode/gitignore; git add . ; git commit --message 'Import from zen'"
    },
    {
      "label": "JSON Pretify clipboard",
      "type": "shell",
      "command": "pbpaste|jq '.'|pbcopy"
    },
    {
      "label": "Upload to Greenhat",
      "type": "shell",
      "command": "rsync --hard-links --partial --progress --verbose --archive --compress $(pwd)/ greenhat:zen/$(basename $(pwd))/"
    },
    {
      "label": "Sanitize gitlab.rb",
      "type": "shell",
      "command": "ruby ~/lab/gitlab.com/gitlab-com/support/toolbox/gitlabrb_sanitizer/sanitizer.rb --file ${input:gitlabrb} > ${input:gitlabrb}-sanitized.rb"
    },
    {
      "label": "Plex up greenhat",
      "type": "shell",
      "command": "~/lab/lab/bin/glplex start greenhat && ~/lab/lab/bin/ssh-update-plex greenhat"
    },
    {
      "label": "Open on greenhat",
      "type": "shell",
      "command": "zencode --greenhat (basename (pwd))"
    }
  ],
  "inputs": [
    {
      "id": "gitlabrb",
      "description": "relative path to gitlab.rb file",
      "default": "gitlab.rb",
      "type": "promptString"
    }
}